1	se21.th	0.02
2	se22.th	0.02
3	se23.th	0.005
4	se24.th	0.005
5	se25.th	0.02
6	se26.th	0.02
7	se27.th	0.02
8	se28.th	0.02
9	se29.th	0.025
10	se30.th	0.025
11	se31.th	0.025
12	se32.th	0.025
13	se33.th	0.02
14	se34.th	0.02
15	se35.th	0.02
16	se36.th	0.02
17	se37.th	0.02
18	se38.th	0.02
19	se39.th	0.02
20	se40.th	0.02
